12:41:34 scenario.file.loc[Ljava.lang.String;@46238e3f
12:41:34 loading BDD file: scenarios/suite1.bdd
12:41:34 total test found: 1
12:41:34 

Executing scenario: FlipkartOrder - Flipkart app order
12:41:34 pkg: com.qmetry.qaf.automation.step
12:41:34 pkg: com.flipkartapp.pages
12:41:34 Found duplicate step to load [] with [lower] prority then []
12:41:34 Invoking Teststep: Given user skip authentication
12:41:48 Completed Teststep: Given user skip authentication
12:41:48 Invoking Teststep: When user search for 'Apple ipad' in category with arguments: [Apple ipad]
12:41:59 Completed Teststep: When user search for 'Apple ipad' in category with arguments: [Apple ipad]
12:41:59 Invoking Teststep: Then user clicks on 'Apple iPad' link from subcategory with arguments: [Apple iPad]
12:42:00 Completed Teststep: Then user clicks on 'Apple iPad' link from subcategory with arguments: [Apple iPad]
12:42:00 Invoking Teststep: When Select item from list
12:42:05 Completed Teststep: When Select item from list
12:42:05 Invoking Teststep: Then verify the product details
12:42:08 Failure Teststep: Then verify the product details
org.openqa.selenium.TimeoutException: Timed out after 3 seconds: Wait time out for product summary to be present
Build info: version: '2.53.0', revision: '35ae25b1534ae328c771e0856c93e187490ca824', time: '2016-03-15 10:43:46'
System info: host: 'ICPL11485', ip: '10.11.31.205', os.name: 'Windows 10', os.arch: 'amd64', os.version: '10.0', java.version: '1.8.0_152'
Driver info: driver.version: unknown
	at org.openqa.selenium.support.ui.FluentWait.timeoutException(FluentWait.java:292)
	at org.openqa.selenium.support.ui.FluentWait.until(FluentWait.java:261)
	at com.qmetry.qaf.automation.ui.webdriver.QAFExtendedWebElement.waitForPresent(QAFExtendedWebElement.java:499)
	at com.flipkartapp.pages.ProductdetailTestPage.verifyProductDetails(ProductdetailTestPage.java:45)
	at sun.reflect.NativeMethodAccessorImpl.invoke0(Native Method)
	at sun.reflect.NativeMethodAccessorImpl.invoke(Unknown Source)
	at sun.reflect.DelegatingMethodAccessorImpl.invoke(Unknown Source)
	at java.lang.reflect.Method.invoke(Unknown Source)
	at com.qmetry.qaf.automation.step.JavaStep.doExecute(JavaStep.java:160)
	at com.qmetry.qaf.automation.step.BaseTestStep.execute(BaseTestStep.java:149)
	at com.qmetry.qaf.automation.step.StringTestStep.execute(StringTestStep.java:134)
	at com.qmetry.qaf.automation.step.client.Scenario.execute(Scenario.java:167)
	at com.qmetry.qaf.automation.step.client.Scenario.scenario(Scenario.java:219)
	at sun.reflect.NativeMethodAccessorImpl.invoke0(Native Method)
	at sun.reflect.NativeMethodAccessorImpl.invoke(Unknown Source)
	at sun.reflect.DelegatingMethodAccessorImpl.invoke(Unknown Source)
	at java.lang.reflect.Method.invoke(Unknown Source)
	at org.testng.internal.MethodInvocationHelper.invokeMethod(MethodInvocationHelper.java:104)
	at org.testng.internal.Invoker.invokeMethod(Invoker.java:645)
	at org.testng.internal.Invoker.invokeTestMethod(Invoker.java:851)
	at org.testng.internal.Invoker.invokeTestMethods(Invoker.java:1177)
	at org.testng.internal.TestMethodWorker.invokeTestMethods(TestMethodWorker.java:129)
	at org.testng.internal.TestMethodWorker.run(TestMethodWorker.java:112)
	at org.testng.TestRunner.privateRun(TestRunner.java:781)
	at org.testng.TestRunner.run(TestRunner.java:635)
	at org.testng.SuiteRunner.runTest(SuiteRunner.java:387)
	at org.testng.SuiteRunner.runSequentially(SuiteRunner.java:382)
	at org.testng.SuiteRunner.privateRun(SuiteRunner.java:340)
	at org.testng.SuiteRunner.run(SuiteRunner.java:289)
	at org.testng.SuiteRunnerWorker.runSuite(SuiteRunnerWorker.java:52)
	at org.testng.SuiteRunnerWorker.run(SuiteRunnerWorker.java:86)
	at org.testng.TestNG.runSuitesSequentially(TestNG.java:1293)
	at org.testng.TestNG.runSuitesLocally(TestNG.java:1218)
	at org.testng.TestNG.runSuites(TestNG.java:1133)
	at org.testng.TestNG.run(TestNG.java:1104)
	at org.testng.remote.AbstractRemoteTestNG.run(AbstractRemoteTestNG.java:114)
	at org.testng.remote.RemoteTestNG.initAndRun(RemoteTestNG.java:251)
	at org.testng.remote.RemoteTestNG.main(RemoteTestNG.java:77)
12:42:08 Completed Teststep: Then verify the product details
12:42:08 Competed scenario: FlipkartOrder with status FAILURE
